column_header,data_type,conversion_statement,table_name,create_column_order,create_column_options,insert_constraint,is_insert,is_partition,is_cluster, is_additional
TICKER,string,NULL,equity_out,1,NULL,NULL,1,0,0,0
EXCH_CODE,string,NULL,equity_out,2,NULL,NULL,1,0,0,0
NAME,string,NULL,equity_out,3,NULL,NULL,1,0,0,0
COUNTRY,string,NULL,equity_out,4,NULL,NULL,1,0,0,0
CRNCY,string,NULL,equity_out,5,NULL,NULL,1,0,0,0
SECURITY_TYP,string,NULL,equity_out,6,NULL,NULL,1,0,0,0
PAR_AMT,"DECIMAL(28,15)","cast(PAR_AMT as DECIMAL(28,15))",equity_out,7,NULL,NULL,1,0,0,0
EQY_PRIM_EXCH,string,NULL,equity_out,8,NULL,NULL,1,0,0,0
EQY_PRIM_EXCH_SHRT,string,NULL,equity_out,9,NULL,NULL,1,0,0,0
EQY_SIC_CODE,string,NULL,equity_out,10,NULL,NULL,1,0,0,0
EQY_SIC_NAME,string,NULL,equity_out,11,NULL,NULL,1,0,0,0
INDUSTRY_GROUP,string,NULL,equity_out,12,NULL,NULL,1,0,0,0
INDUSTRY_SUBGROUP,string,NULL,equity_out,13,NULL,NULL,1,0,0,0
INDUSTRY_SECTOR,string,NULL,equity_out,14,NULL,NULL,1,0,0,0
ID_SEDOL1,string,NULL,equity_out,15,NULL,NULL,1,0,0,0
ID_WERTPAPIER,string,NULL,equity_out,16,NULL,NULL,1,0,0,0
ID_ISIN,string,NULL,equity_out,17,NULL,NULL,1,0,0,0
ID_DUTCH,string,NULL,equity_out,18,NULL,NULL,1,0,0,0
ID_VALOREN,string,NULL,equity_out,19,NULL,NULL,1,0,0,0
ID_FRENCH,string,NULL,equity_out,20,NULL,NULL,1,0,0,0
ID_BELGIUM,string,NULL,equity_out,21,NULL,NULL,1,0,0,0
ID_BB_COMPANY,int,cast(ID_BB_COMPANY as int),equity_out,22,NULL,NULL,1,0,0,0
ID_BB_SECURITY,int,cast(ID_BB_SECURITY as int),equity_out,23,NULL,NULL,1,0,0,0
ID_CUSIP,string,NULL,equity_out,24,NULL,NULL,1,0,0,0
ID_COMMON,string,NULL,equity_out,25,NULL,NULL,1,0,0,0
ADR_UNDL_TICKER,string,NULL,equity_out,26,NULL,NULL,1,0,0,0
ADR_SH_PER_ADR,"DECIMAL(28,15)","cast(ADR_SH_PER_ADR as DECIMAL(28,15))",equity_out,27,NULL,NULL,1,0,0,0
DVD_CRNCY,string,NULL,equity_out,28,NULL,NULL,1,0,0,0
EQY_DVD_SH_12M_NET,"DECIMAL(28,15)","cast(EQY_DVD_SH_12M_NET as DECIMAL(28,15))",equity_out,29,NULL,NULL,1,0,0,0
DVD_SH_12M,"DECIMAL(28,15)","cast(DVD_SH_12M as DECIMAL(28,15))",equity_out,30,NULL,NULL,1,0,0,0
DVD_SH_LAST,"DECIMAL(28,15)","cast(DVD_SH_LAST as DECIMAL(28,15))",equity_out,31,NULL,NULL,1,0,0,0
LAST_DPS_GROSS,"DECIMAL(28,15)","cast(LAST_DPS_GROSS as DECIMAL(28,15))",equity_out,32,NULL,NULL,1,0,0,0
EQY_DVD_PCT_FRANKED,"DECIMAL(28,15)","cast(EQY_DVD_PCT_FRANKED as DECIMAL(28,15))",equity_out,33,NULL,NULL,1,0,0,0
DVD_TYP_LAST,string,NULL,equity_out,34,NULL,NULL,1,0,0,0
DVD_FREQ,string,NULL,equity_out,35,NULL,NULL,1,0,0,0
DVD_PAY_DT,date,"to_date(from_unixtime(UNIX_TIMESTAMP(DVD_PAY_DT,'yyyyMMdd')))",equity_out,36,NULL,NULL,1,0,0,0
DVD_RECORD_DT,date,"to_date(from_unixtime(UNIX_TIMESTAMP(DVD_RECORD_DT,'yyyyMMdd')))",equity_out,37,NULL,NULL,1,0,0,0
DVD_DECLARED_DT,date,"to_date(from_unixtime(UNIX_TIMESTAMP(DVD_DECLARED_DT,'yyyyMMdd')))",equity_out,38,NULL,NULL,1,0,0,0
EQY_SPLIT_DT,date,"to_date(from_unixtime(UNIX_TIMESTAMP(EQY_SPLIT_DT,'yyyyMMdd')))",equity_out,39,NULL,NULL,1,0,0,0
EQY_SPLIT_RATIO,string,NULL,equity_out,40,NULL,NULL,1,0,0,0
DVD_EX_DT,date,"to_date(from_unixtime(UNIX_TIMESTAMP(DVD_EX_DT,'yyyyMMdd')))",equity_out,41,NULL,NULL,1,0,0,0
EQY_DVD_EX_FLAG,BOOLEAN,cast(EQY_DVD_EX_FLAG AS BOOLEAN),equity_out,42,NULL,NULL,1,0,0,0
INDUSTRY_SUBGROUP_NUM,int,cast(INDUSTRY_SUBGROUP_NUM as int),equity_out,43,NULL,NULL,1,0,0,0
CNTRY_ISSUE_ISO,string,NULL,equity_out,44,NULL,NULL,1,0,0,0
MARKET_STATUS,string,NULL,equity_out,45,NULL,NULL,1,0,0,0
ID_BB_PARENT_CO,int,cast(ID_BB_PARENT_CO as int),equity_out,46,NULL,NULL,1,0,0,0
ADR_UNDL_CMPID,int,cast(ADR_UNDL_CMPID as int),equity_out,47,NULL,NULL,1,0,0,0
ADR_UNDL_SECID,int,cast(ADR_UNDL_SECID as int),equity_out,48,NULL,NULL,1,0,0,0
REL_INDEX,string,NULL,equity_out,49,NULL,NULL,1,0,0,0
PX_TRADE_LOT_SIZE,int,cast(PX_TRADE_LOT_SIZE as int),equity_out,50,NULL,NULL,1,0,0,0
PARENT_COMP_TICKER,string,NULL,equity_out,51,NULL,NULL,1,0,0,0
PARENT_COMP_NAME,string,NULL,equity_out,52,NULL,NULL,1,0,0,0
ID_LOCAL,string,NULL,equity_out,53,NULL,NULL,1,0,0,0
LONG_COMP_NAME,string,NULL,equity_out,54,NULL,NULL,1,0,0,0
PARENT_INDUSTRY_GROUP,string,NULL,equity_out,55,NULL,NULL,1,0,0,0
PARENT_INDUSTRY_SUBGROUP,string,NULL,equity_out,56,NULL,NULL,1,0,0,0
PARENT_INDUSTRY_SECTOR,string,NULL,equity_out,57,NULL,NULL,1,0,0,0
VOTING_RIGHTS,"DECIMAL(28,15)","cast(VOTING_RIGHTS as DECIMAL(28,15))",equity_out,58,NULL,NULL,1,0,0,0
ID_BB_PRIM_SECURITY_FLAG,BOOLEAN,cast(ID_BB_PRIM_SECURITY_FLAG AS BOOLEAN),equity_out,59,NULL,NULL,1,0,0,0
PRE_EURO_ID_ISIN,string,NULL,equity_out,60,NULL,NULL,1,0,0,0
PRE_REDENOM_CRNCY,string,NULL,equity_out,61,NULL,NULL,1,0,0,0
PRE_EURO_PAR_AMT,"DECIMAL(28,15)","cast(PRE_EURO_PAR_AMT as DECIMAL(28,15))",equity_out,62,NULL,NULL,1,0,0,0
POST_REDENOM_CRNCY,string,NULL,equity_out,63,NULL,NULL,1,0,0,0
POST_EURO_PAR_AMT,"DECIMAL(28,15)","cast(POST_EURO_PAR_AMT as DECIMAL(28,15))",equity_out,64,NULL,NULL,1,0,0,0
POST_EURO_ID_ISIN,string,NULL,equity_out,65,NULL,NULL,1,0,0,0
REDENOM_DT,date,"to_date(from_unixtime(UNIX_TIMESTAMP(REDENOM_DT,'yyyyMMdd')))",equity_out,66,NULL,NULL,1,0,0,0
REDENOM_METHOD,string,NULL,equity_out,67,NULL,NULL,1,0,0,0
REDENOM_ROUND_METHOD,string,NULL,equity_out,68,NULL,NULL,1,0,0,0
PAR_VAL_CRNCY,string,NULL,equity_out,69,NULL,NULL,1,0,0,0
EQY_SH_OUT,"DECIMAL(28,15)","cast(EQY_SH_OUT as DECIMAL(28,15))",equity_out,70,NULL,NULL,1,0,0,0
EQY_SH_OUT_DT,date,"to_date(from_unixtime(UNIX_TIMESTAMP(EQY_SH_OUT_DT,'yyyyMMdd')))",equity_out,71,NULL,NULL,1,0,0,0
ID_BB_UNIQUE,string,NULL,equity_out,72,NULL,NULL,1,0,0,0
MARKET_SECTOR_DES,string,NULL,equity_out,73,NULL,NULL,1,0,0,0
IS_STK_MARGINABLE,BOOLEAN,cast(IS_STK_MARGINABLE AS BOOLEAN),equity_out,74,NULL,NULL,1,0,0,0
144A_FLAG,BOOLEAN,cast(144A_FLAG AS BOOLEAN),equity_out,75,NULL,NULL,1,0,0,0
TRANSFER_AGENT,string,NULL,equity_out,76,NULL,NULL,1,0,0,0
EQY_PRIM_SECURITY_TICKER,string,NULL,equity_out,77,NULL,NULL,1,0,0,0
EQY_PRIM_SECURITY_COMP_EXCH,string,NULL,equity_out,78,NULL,NULL,1,0,0,0
IS_SETS,BOOLEAN,cast(IS_SETS AS BOOLEAN),equity_out,79,NULL,NULL,1,0,0,0
WHICH_JAPANESE_SECTION,string,NULL,equity_out,80,NULL,NULL,1,0,0,0
ADR_ADR_PER_SH,"DECIMAL(28,15)","cast(ADR_ADR_PER_SH as DECIMAL(28,15))",equity_out,81,NULL,NULL,1,0,0,0
EQY_PRIM_SECURITY_PRIM_EXCH,string,NULL,equity_out,82,NULL,NULL,1,0,0,0
EQY_FUND_CRNCY,string,NULL,equity_out,83,NULL,NULL,1,0,0,0
WHEN_ISSUED,BOOLEAN,cast(WHEN_ISSUED AS BOOLEAN),equity_out,84,NULL,NULL,1,0,0,0
CDR_COUNTRY_CODE,string,NULL,equity_out,85,NULL,NULL,1,0,0,0
CDR_EXCH_CODE,string,NULL,equity_out,86,NULL,NULL,1,0,0,0
CNTRY_OF_INCORPORATION,string,NULL,equity_out,87,NULL,NULL,1,0,0,0
CNTRY_OF_DOMICILE,string,NULL,equity_out,88,NULL,NULL,1,0,0,0
SEC_RESTRICT,int,cast(SEC_RESTRICT as int),equity_out,89,NULL,NULL,1,0,0,0
EQY_SH_OUT_REAL,"DECIMAL(28,15)","cast(EQY_SH_OUT_REAL as DECIMAL(28,15))",equity_out,90,NULL,NULL,1,0,0,0
ADR_UNDL_CRNCY,string,NULL,equity_out,91,NULL,NULL,1,0,0,0
MULTIPLE_SHARE,BOOLEAN,cast(MULTIPLE_SHARE AS BOOLEAN),equity_out,92,NULL,NULL,1,0,0,0
PX_QUOTE_LOT_SIZE,"DECIMAL(28,15)","cast(PX_QUOTE_LOT_SIZE as DECIMAL(28,15))",equity_out,93,NULL,NULL,1,0,0,0
PX_ROUND_LOT_SIZE,int,cast(PX_ROUND_LOT_SIZE as int),equity_out,94,NULL,NULL,1,0,0,0
ID_SEDOL2,string,NULL,equity_out,95,NULL,NULL,1,0,0,0
SEDOL1_COUNTRY_ISO,string,NULL,equity_out,96,NULL,NULL,1,0,0,0
SEDOL2_COUNTRY_ISO,string,NULL,equity_out,97,NULL,NULL,1,0,0,0
ID_MIC_PRIM_EXCH,string,NULL,equity_out,98,NULL,NULL,1,0,0,0
ID_MIC_LOCAL_EXCH,string,NULL,equity_out,99,NULL,NULL,1,0,0,0
LSE_SECTOR,string,NULL,equity_out,100,NULL,NULL,1,0,0,0
LSE_SEGMENT,string,NULL,equity_out,101,NULL,NULL,1,0,0,0
EQY_SH_OUT_TOT_MULT_SH,"DECIMAL(28,15)","cast(EQY_SH_OUT_TOT_MULT_SH as DECIMAL(28,15))",equity_out,102,NULL,NULL,1,0,0,0
SECURITY_TYP2,string,NULL,equity_out,103,NULL,NULL,1,0,0,0
ID_BB_PRIM_SECURITY ,int,cast(ID_BB_PRIM_SECURITY  as int),equity_out,104,NULL,NULL,1,0,0,0
EQY_OPT_AVAIL,BOOLEAN,cast(EQY_OPT_AVAIL AS BOOLEAN),equity_out,105,NULL,NULL,1,0,0,0
EQY_FREE_FLOAT_PCT,"DECIMAL(28,15)","cast(EQY_FREE_FLOAT_PCT as DECIMAL(28,15))",equity_out,106,NULL,NULL,1,0,0,0
TICKER_AND_EXCH_CODE,string,NULL,equity_out,107,NULL,NULL,1,0,0,0
EQY_INIT_PO_DT,date,"to_date(from_unixtime(UNIX_TIMESTAMP(EQY_INIT_PO_DT,'yyyyMMdd')))",equity_out,108,NULL,NULL,1,0,0,0
EQY_PO_DT,date,"to_date(from_unixtime(UNIX_TIMESTAMP(EQY_PO_DT,'yyyyMMdd')))",equity_out,109,NULL,NULL,1,0,0,0
EQY_INIT_PO_SH_PX,"DECIMAL(28,15)","cast(EQY_INIT_PO_SH_PX as DECIMAL(28,15))",equity_out,110,NULL,NULL,1,0,0,0
EQY_SPLIT_ADJ_INIT_PO_PX,"DECIMAL(28,15)","cast(EQY_SPLIT_ADJ_INIT_PO_PX as DECIMAL(28,15))",equity_out,111,NULL,NULL,1,0,0,0
EQY_FUND_TICKER,string,NULL,equity_out,112,NULL,NULL,1,0,0,0
TOTAL_VOTING_SHARES_VALUE,"DECIMAL(28,15)","cast(TOTAL_VOTING_SHARES_VALUE as DECIMAL(28,15))",equity_out,113,NULL,NULL,1,0,0,0
ID_EXCH_SYMBOL,string,NULL,equity_out,114,NULL,NULL,1,0,0,0
ID_BB_CONNECT,int,cast(ID_BB_CONNECT as int),equity_out,115,NULL,NULL,1,0,0,0
ID_NAICS_CODE,string,NULL,equity_out,116,NULL,NULL,1,0,0,0
TOTAL_NON_VOTING_SHARES_VALUE,"DECIMAL(28,15)","cast(TOTAL_NON_VOTING_SHARES_VALUE as DECIMAL(28,15))",equity_out,117,NULL,NULL,1,0,0,0
CDR_SETTLE_CODE,string,NULL,equity_out,118,NULL,NULL,1,0,0,0
CFI_CODE,string,NULL,equity_out,119,NULL,NULL,1,0,0,0
ID_BB_GLOBAL,string,NULL,equity_out,120,NULL,NULL,1,0,0,0
COMPOSITE_ID_BB_GLOBAL,string,NULL,equity_out,121,NULL,NULL,1,0,0,0
INDUSTRY_GROUP_NUM,int,cast(INDUSTRY_GROUP_NUM as int),equity_out,122,NULL,NULL,1,0,0,0
INDUSTRY_SECTOR_NUM,int,cast(INDUSTRY_SECTOR_NUM as int),equity_out,123,NULL,NULL,1,0,0,0
EQY_PRIM_SECURITY_CRNCY,string,NULL,equity_out,124,NULL,NULL,1,0,0,0
ID_BB_SEC_NUM_DES,string,NULL,equity_out,125,NULL,NULL,1,0,0,0
FEED_SOURCE,string,NULL,equity_out,126,NULL,NULL,1,0,0,0
ID_BB_GLOBAL_COMPANY,string,NULL,equity_out,127,NULL,NULL,1,0,0,0
ID_BB_GLOBAL_COMPANY_NAME,string,NULL,equity_out,128,NULL,NULL,1,0,0,0
UNDERLYING_ID_BB_GLOBAL,string,NULL,equity_out,129,NULL,NULL,1,0,0,0
PRIMARY_UNDERLYING_ID_BB_GLOBAL,string,NULL,equity_out,130,NULL,NULL,1,0,0,0
ID_BB_GLOBAL_SHARE_CLASS_LEVEL,string,NULL,equity_out,131,NULL,NULL,1,0,0,0
PRIM_SECURITY_COMP_ID_BB_GLOBAL,string,NULL,equity_out,132,NULL,NULL,1,0,0,0
MTF_ASSC_MKT_COMP_ID_BB_GLOBAL,string,NULL,equity_out,133,NULL,NULL,1,0,0,0
MTF_ASSC_MKT_PRIM_ID_BB_GLOBAL,string,NULL,equity_out,134,NULL,NULL,1,0,0,0
TRADING_SYSTEM_IDENTIFIER,string,NULL,equity_out,135,NULL,NULL,1,0,0,0
TRADING_SYSTEM_IDENTIFIER_DES,string,NULL,equity_out,136,NULL,NULL,1,0,0,0
SSE_SEHK_CONN_ASSC_ID_BB_GBL,string,NULL,equity_out,137,NULL,NULL,1,0,0,0
SSE_SEHK_CONN_COMP_ID_BB_GBL,string,NULL,equity_out,138,NULL,NULL,1,0,0,0
SZSE_SEHK_CONN_ASSC_FIGI,string,NULL,equity_out,139,NULL,NULL,1,0,0,0
SZSE_SEHK_CONN_ASSC_COMP_FIGI,string,NULL,equity_out,140,NULL,NULL,1,0,0,0
INTERNAL_IDENTIFIER,string,TICKER || ' ' || EXCH_CODE || ' ' || MARKET_SECTOR_DES,equity_out,10997,NULL,NULL,0,0,1,1
FILE_NAME,string,NULL,equity_out,10998,NULL,NULL,0,0,0,1
TSTAMP,TIMESTAMP,NULL,equity_out,10999,DEFAULT CURRENT_TIMESTAMP,NULL,0,0,0,1
FILE_DATE,date,"to_date(from_unixtime(UNIX_TIMESTAMP(FILE_DATE,'yyyyMMdd')))",equity_out,11000,NULL,NULL,0,1,0,1
