column_header,data_type,conversion_statement,table_name,create_column_order,create_column_options,insert_constraint,is_insert,is_partition,is_cluster,is_additional
TICKER,string,NULL,futures_pricing,1,NULL,NULL,1,0,0,0
EXCH_CODE,string,NULL,futures_pricing,2,NULL,NULL,1,0,0,0
ID_BB_GLOBAL,string,NULL,futures_pricing,3,NULL,NULL,1,0,0,0
UNIQUE_ID_FUT_OPT,string,NULL,futures_pricing,4,NULL,NULL,1,0,0,0
PARSEKYABLE_DES_SOURCE,string,NULL,futures_pricing,5,NULL,NULL,1,0,0,0
MARKET_SECTOR_DES,string,NULL,futures_pricing,6,NULL,NULL,1,0,0,0
SECURITY_TYP,string,NULL,futures_pricing,7,NULL,NULL,1,0,0,0
SECURITY_TYP2,string,NULL,futures_pricing,8,NULL,NULL,1,0,0,0
FUTURES_CATEGORY,string,NULL,futures_pricing,9,NULL,NULL,1,0,0,0
NAME,string,NULL,futures_pricing,10,NULL,NULL,1,0,0,0
FEED_SOURCE,string,NULL,futures_pricing,11,NULL,NULL,1,0,0,0
ID_BB_SEC_NUM_DES,string,NULL,futures_pricing,12,NULL,NULL,1,0,0,0
ID_BB_UNIQUE,string,NULL,futures_pricing,13,NULL,NULL,1,0,0,0
FUT_PX_SESSION,string,NULL,futures_pricing,14,NULL,NULL,1,0,0,0
CRNCY,string,NULL,futures_pricing,15,NULL,NULL,1,0,0,0
ID_BB_COMPANY,int,cast(ID_BB_COMPANY as int),futures_pricing,16,NULL,NULL,1,0,0,0
PRICING_SOURCE,string,NULL,futures_pricing,17,NULL,NULL,1,0,0,0
QUOTED_CRNCY,string,NULL,futures_pricing,18,NULL,NULL,1,0,0,0
LAST_UPDATE,string,NULL,futures_pricing,19,NULL,NULL,1,0,0,0
LAST_UPDATE_DT,date,"to_date(from_unixtime(UNIX_TIMESTAMP(LAST_UPDATE_DT,'yyyyMMdd')))",futures_pricing,20,NULL,NULL,1,0,0,0
OPEN_INT_CHANGE,int,cast(OPEN_INT_CHANGE as int),futures_pricing,21,NULL,NULL,1,0,0,0
OPEN_INT_DATE,date,"to_date(from_unixtime(UNIX_TIMESTAMP(OPEN_INT_DATE,'yyyyMMdd')))",futures_pricing,22,NULL,NULL,1,0,0,0
OPT_UNDL_PX,"DECIMAL(28,15)","cast(OPT_UNDL_PX as DECIMAL(28,15))",futures_pricing,23,NULL,NULL,1,0,0,0
PRIOR_CLOSE_ASK,"DECIMAL(28,15)","cast(PRIOR_CLOSE_ASK as DECIMAL(28,15))",futures_pricing,24,NULL,NULL,1,0,0,0
PRIOR_CLOSE_BID,"DECIMAL(28,15)","cast(PRIOR_CLOSE_BID as DECIMAL(28,15))",futures_pricing,25,NULL,NULL,1,0,0,0
PRIOR_CLOSE_MID,"DECIMAL(28,15)","cast(PRIOR_CLOSE_MID as DECIMAL(28,15))",futures_pricing,26,NULL,NULL,1,0,0,0
PX_ASK,"DECIMAL(28,15)","cast(PX_ASK as DECIMAL(28,15))",futures_pricing,27,NULL,NULL,1,0,0,0
PX_BID,"DECIMAL(28,15)","cast(PX_BID as DECIMAL(28,15))",futures_pricing,28,NULL,NULL,1,0,0,0
PX_CLOSE_DT,date,"to_date(from_unixtime(UNIX_TIMESTAMP(PX_CLOSE_DT,'yyyyMMdd')))",futures_pricing,29,NULL,NULL,1,0,0,0
PX_HIGH,"DECIMAL(28,15)","cast(PX_HIGH as DECIMAL(28,15))",futures_pricing,30,NULL,NULL,1,0,0,0
PX_LAST,"DECIMAL(28,15)","cast(PX_LAST as DECIMAL(28,15))",futures_pricing,31,NULL,NULL,1,0,0,0
PX_LAST_ACTUAL,"DECIMAL(28,15)","cast(PX_LAST_ACTUAL as DECIMAL(28,15))",futures_pricing,32,NULL,NULL,1,0,0,0
PX_LAST_EOD,"DECIMAL(28,15)","cast(PX_LAST_EOD as DECIMAL(28,15))",futures_pricing,33,NULL,NULL,1,0,0,0
PX_LOW,"DECIMAL(28,15)","cast(PX_LOW as DECIMAL(28,15))",futures_pricing,34,NULL,NULL,1,0,0,0
PX_OPEN,"DECIMAL(28,15)","cast(PX_OPEN as DECIMAL(28,15))",futures_pricing,35,NULL,NULL,1,0,0,0
PX_SCALING_FACTOR,"DECIMAL(28,15)","cast(PX_SCALING_FACTOR as DECIMAL(28,15))",futures_pricing,36,NULL,NULL,1,0,0,0
PX_SETTLE,"DECIMAL(28,15)","cast(PX_SETTLE as DECIMAL(28,15))",futures_pricing,37,NULL,NULL,1,0,0,0
PX_SETTLE_LAST_DT,date,"to_date(from_unixtime(UNIX_TIMESTAMP(PX_SETTLE_LAST_DT,'yyyyMMdd')))",futures_pricing,38,NULL,NULL,1,0,0,0
PX_VOLUME,int,cast(PX_VOLUME as int),futures_pricing,39,NULL,NULL,1,0,0,0
PX_VOLUME_1D,int,cast(PX_VOLUME_1D as int),futures_pricing,40,NULL,NULL,1,0,0,0
PX_YEST_DT,date,"to_date(from_unixtime(UNIX_TIMESTAMP(PX_YEST_DT,'yyyyMMdd')))",futures_pricing,41,NULL,NULL,1,0,0,0
PX_YEST_HIGH,"DECIMAL(28,15)","cast(PX_YEST_HIGH as DECIMAL(28,15))",futures_pricing,42,NULL,NULL,1,0,0,0
PX_YEST_LOW,"DECIMAL(28,15)","cast(PX_YEST_LOW as DECIMAL(28,15))",futures_pricing,43,NULL,NULL,1,0,0,0
SETTLE_DT,date,"to_date(from_unixtime(UNIX_TIMESTAMP(SETTLE_DT,'yyyyMMdd')))",futures_pricing,44,NULL,NULL,1,0,0,0
VOLUME_AVG_100D,"DECIMAL(28,15)","cast(VOLUME_AVG_100D as DECIMAL(28,15))",futures_pricing,45,NULL,NULL,1,0,0,0
VOLUME_AVG_10D,"DECIMAL(28,15)","cast(VOLUME_AVG_10D as DECIMAL(28,15))",futures_pricing,46,NULL,NULL,1,0,0,0
VOLUME_AVG_30D,"DECIMAL(28,15)","cast(VOLUME_AVG_30D as DECIMAL(28,15))",futures_pricing,47,NULL,NULL,1,0,0,0
VOLUME_AVG_3M,"DECIMAL(28,15)","cast(VOLUME_AVG_3M as DECIMAL(28,15))",futures_pricing,48,NULL,NULL,1,0,0,0
VOLUME_AVG_6M,"DECIMAL(28,15)","cast(VOLUME_AVG_6M as DECIMAL(28,15))",futures_pricing,49,NULL,NULL,1,0,0,0
CONTRACT_VALUE,"DECIMAL(28,15)","cast(CONTRACT_VALUE as DECIMAL(28,15))",futures_pricing,50,NULL,NULL,1,0,0,0
DAILY_LIMIT_DOWN,"DECIMAL(28,15)","cast(DAILY_LIMIT_DOWN as DECIMAL(28,15))",futures_pricing,51,NULL,NULL,1,0,0,0
DAILY_LIMIT_UP,"DECIMAL(28,15)","cast(DAILY_LIMIT_UP as DECIMAL(28,15))",futures_pricing,52,NULL,NULL,1,0,0,0
FUT_AGGTE_OPEN_INT,int,cast(FUT_AGGTE_OPEN_INT as int),futures_pricing,53,NULL,NULL,1,0,0,0
FUT_CNVS_FACTOR,"DECIMAL(28,15)","cast(FUT_CNVS_FACTOR as DECIMAL(28,15))",futures_pricing,54,NULL,NULL,1,0,0,0
FUT_CTD_PX,"DECIMAL(28,15)","cast(FUT_CTD_PX as DECIMAL(28,15))",futures_pricing,55,NULL,NULL,1,0,0,0
FUT_EXCH_NAME_LONG,string,NULL,futures_pricing,56,NULL,NULL,1,0,0,0
FUT_NOTICE_FIRST,date,"to_date(from_unixtime(UNIX_TIMESTAMP(FUT_NOTICE_FIRST,'yyyyMMdd')))",futures_pricing,57,NULL,NULL,1,0,0,0
FUT_PX,"DECIMAL(28,15)","cast(FUT_PX as DECIMAL(28,15))",futures_pricing,58,NULL,NULL,1,0,0,0
FUT_SEC_HEDGE_ML,"DECIMAL(28,15)","cast(FUT_SEC_HEDGE_ML as DECIMAL(28,15))",futures_pricing,59,NULL,NULL,1,0,0,0
FUT_SEC_SPEC_ML,"DECIMAL(28,15)","cast(FUT_SEC_SPEC_ML as DECIMAL(28,15))",futures_pricing,60,NULL,NULL,1,0,0,0
OPEN_INT,int,cast(OPEN_INT as int),futures_pricing,61,NULL,NULL,1,0,0,0
OPEN_INT_TOTAL_CALL,"DECIMAL(28,15)","cast(OPEN_INT_TOTAL_CALL as DECIMAL(28,15))",futures_pricing,62,NULL,NULL,1,0,0,0
OPEN_INT_TOTAL_PUT,"DECIMAL(28,15)","cast(OPEN_INT_TOTAL_PUT as DECIMAL(28,15))",futures_pricing,63,NULL,NULL,1,0,0,0
PX_SETTLE_E_MINI_ACTUAL,"DECIMAL(28,15)","cast(PX_SETTLE_E_MINI_ACTUAL as DECIMAL(28,15))",futures_pricing,64,NULL,NULL,1,0,0,0
PX_YEST_CLOSE,"DECIMAL(28,15)","cast(PX_YEST_CLOSE as DECIMAL(28,15))",futures_pricing,65,NULL,NULL,1,0,0,0
PX_YEST_OPEN,"DECIMAL(28,15)","cast(PX_YEST_OPEN as DECIMAL(28,15))",futures_pricing,66,NULL,NULL,1,0,0,0
PX_YEST_OPEN_INT,"DECIMAL(28,15)","cast(PX_YEST_OPEN_INT as DECIMAL(28,15))",futures_pricing,67,NULL,NULL,1,0,0,0
QUOTE_UNITS,string,NULL,futures_pricing,68,NULL,NULL,1,0,0,0
STRATEGY_TYP,string,NULL,futures_pricing,69,NULL,NULL,1,0,0,0
QT_SPEC,string,NULL,futures_pricing,70,NULL,NULL,1,0,0,0
INTERNAL_IDENTIFIER,string,TICKER || ' ' || EXCH_CODE || ' ' || MARKET_SECTOR_DES,futures_pricing,10997,NULL,NULL,0,0,1,1
FILE_NAME,string,NULL,futures_pricing,10998,NULL,NULL,0,0,0,1
TSTAMP,TIMESTAMP,NULL,futures_pricing,10999,DEFAULT CURRENT_TIMESTAMP,NULL,0,0,0,1
FILE_DATE,date,"to_date(from_unixtime(UNIX_TIMESTAMP(FILE_DATE,'yyyyMMdd')))",futures_pricing,11000,NULL,NULL,0,1,0,1
